…
white_non_hisp_2016 = 
  filter(baby_names_data, year_of_birth == 2016, gender == "MALE", ethnicity == "WHITE NON HISPANIC") %>% 
  mutate(count = as.integer(count), rank = as.integer(rank))

white_non_hisp_2016
```

    ## # A tibble: 364 x 6
    ##    year_of_birth gender ethnicity          childs_first_name count  rank
    ##    <chr>         <chr>  <chr>              <chr>             <int> <int>
    ##  1 2016          MALE   WHITE NON HISPANIC Joseph              261     1
    ##  2 2016          MALE   WHITE NON HISPANIC Michael             260     2
    ##  3 2016          MALE   WHITE NON HISPANIC David               255     3
    ##  4 2016          MALE   WHITE NON HISPANIC Moshe               239     4
    ##  5 2016          MALE   WHITE NON HISPANIC Jacob               236     5
    ##  6 2016          MALE   WHITE NON HISPANIC James               231     6
    ##  7 2016          MALE   WHITE NON HISPANIC Benjamin            219     7
    ##  8 2016          MALE   WHITE NON HISPANIC Alexander           211     8
    ##  9 2016          MALE   WHITE NON HISPANIC Daniel              196     9
    ## 10 2016          MALE   WHITE NON HISPANIC Henry               196     9
    ## # … with 354 more rows
…
